[
    {
        "blog_url": "http://gaozhidf.blog.163.com/blog/static/239114086201623042751996/",
        "category_list": [
            "makefile"
        ],
        "tag_list": [
            "makefile",
            "gcc",
            "g++"
        ],
        "blog_id": "1742247463"
    }
]